{
  "tags": {
    "allowUnknownTags": false
  },
  "source": {
    "include": "./main",
    "includePattern": ".js$",
    "excludePattern": "(node_modules/|docs)"
  },
  "plugins": [
    "plugins/markdown"
  ],
  "opts": {
    "template": "node_modules/docdash",
    "encoding": "utf8",
    "destination": "docs/",
    "recurse": true,
    "verbose": true,
    "directory":"docs"
  },
  "templates": {
    "cleverLinks": false,
    "monospaceLinks": false
  }
}
